…
3. How many countries are represented in the data? Provide a count and list their names.

```r
fisheries_tidy %>% 
    count(country, sort=T)
```

```
## # A tibble: 203 × 2
##    country                      n
##    <fct>                    <int>
##  1 United States of America 18080
##  2 Spain                    17482
##  3 Japan                    15429
##  4 Portugal                 11570
##  5 Korea, Republic of       10824
##  6 France                   10639
##  7 Taiwan Province of China  9927
##  8 Indonesia                 9274
##  9 Australia                 8183
## 10 Un. Sov. Soc. Rep.        7084
## # … with 193 more rows
```

4. Refocus the data only to include country, isscaap_taxonomic_group, asfis_species_name, asfis_species_number, year, catch.

```r
select(fisheries_tidy, country, isscaap_group_number, asfis_species_number, asfis_species_name, year, catch)
```

```
## # A tibble: 376,771 × 6
##    country isscaap_group_number asfis_species_number asfis_species…¹  year catch
##    <fct>   <fct>                <fct>                <chr>           <dbl> <dbl>
##  1 Albania 38                   10903XXXXX           Squatinidae      1995    NA
##  2 Albania 38                   10903XXXXX           Squatinidae      1996    53
##  3 Albania 38                   10903XXXXX           Squatinidae      1997    20
##  4 Albania 38                   10903XXXXX           Squatinidae      1998    31
##  5 Albania 38                   10903XXXXX           Squatinidae      1999    30
##  6 Albania 38                   10903XXXXX           Squatinidae      2000    30
##  7 Albania 38                   10903XXXXX           Squatinidae      2001    16
##  8 Albania 38                   10903XXXXX           Squatinidae      2002    79
##  9 Albania 38                   10903XXXXX           Squatinidae      2003     1
## 10 Albania 38                   10903XXXXX           Squatinidae      2004     4
## # … with 376,761 more rows, and abbreviated variable name ¹​asfis_species_name
```
…
6. Which country had the largest overall catch in the year 2000?

```r
fisheries_tidy %>% 
  filter(year == "2000") %>%
  group_by(country) %>% 
   summarize(total_catch = sum(catch, na.rm = T)) %>% 
  arrange(desc(total_catch))
```

```
## # A tibble: 193 × 2
##    country                  total_catch
##    <fct>                          <dbl>
##  1 China                          25899
##  2 Russian Federation             12181
##  3 United States of America       11762
##  4 Japan                           8510
##  5 Indonesia                       8341
##  6 Peru                            7443
##  7 Chile                           6906
##  8 India                           6351
##  9 Thailand                        6243
## 10 Korea, Republic of              6124
## # … with 183 more rows
```

7. Which country caught the most sardines (_Sardina pilchardus_) between the years 1990-2000?

```r
fisheries_tidy %>% 
  filter(asfis_species_name == "Sardina pilchardus") %>% 
  filter(between(year, "1990", "2000")) %>% 
  group_by(country) %>% 
  summarise(total_sardines = sum(catch, rm.na = T)) %>% 
  arrange(desc(total_sardines))
```

```
## # A tibble: 37 × 2
##    country               total_sardines
##    <fct>                          <dbl>
##  1 Morocco                         7471
##  2 Spain                           3508
##  3 Russian Federation              1640
##  4 Ukraine                         1031
##  5 Portugal                         819
##  6 Greece                           529
##  7 Italy                            508
##  8 Serbia and Montenegro            479
##  9 Denmark                          478
## 10 Tunisia                          428
## # … with 27 more rows
```

8. Which five countries caught the most cephalopods between 2008-2012?

```r
fisheries_tidy %>% 
  filter(between(year, "2008", "2012")) %>% 
  filter(isscaap_taxonomic_group == "Squids, cuttlefishes, octopuses") %>% 
  group_by(country) %>% 
  summarize(total_cephalopods = sum(catch, na.rm = T)) %>% 
  arrange(desc(total_cephalopods))
```

```
## # A tibble: 122 × 2
##    country                  total_cephalopods
##    <fct>                                <dbl>
##  1 China                                 8349
##  2 Korea, Republic of                    3480
##  3 Peru                                  3422
##  4 Japan                                 3248
##  5 Chile                                 2775
##  6 United States of America              2417
##  7 Indonesia                             1622
##  8 Taiwan Province of China              1394
##  9 Spain                                 1147
## 10 France                                1138
## # … with 112 more rows
```



9. Which species had the highest catch total between 2008-2012? (hint: Osteichthyes is not a species)

```r
fisheries_tidy %>% 
  filter(between(year, 2008, 2012)) %>% 
  group_by(asfis_species_name) %>% 
  summarize(total_catch = sum(catch, na.rm = T)) %>% 
  arrange(desc(total_catch))
```

```
## # A tibble: 1,472 × 2
##    asfis_species_name    total_catch
##    <chr>                       <dbl>
##  1 Osteichthyes               107808
##  2 Theragra chalcogramma       41075
##  3 Engraulis ringens           35523
##  4 Katsuwonus pelamis          32153
##  5 Trichiurus lepturus         30400
##  6 Clupea harengus             28527
##  7 Thunnus albacares           20119
##  8 Scomber japonicus           14723
##  9 Gadus morhua                13253
## 10 Thunnus alalunga            12019
## # … with 1,462 more rows
```

10. Use the data to do at least one analysis of your choice.

```r
#What year were the most tunas, bonitos, and billfishes caught
fisheries_tidy %>% 
  filter(isscaap_taxonomic_group == "Tunas, bonitos, billfishes") %>% 
  group_by(year) %>% 
  summarize(total_fish = sum(catch, na.rm = T)) %>% 
  arrange(desc(total_fish))
```

```
## # A tibble: 63 × 2
##     year total_fish
##    <dbl>      <dbl>
##  1  2007      34186
##  2  2006      33880
##  3  2012      33554
##  4  2011      33487
##  5  2005      31917
##  6  2010      31252
##  7  2008      30919
##  8  2009      30332
##  9  2004      29842
## 10  2002      28659
## # … with 53 more rows
```
…
