…
4. The column `COSTT4_A` is the annual cost of each institution. Which city has the highest average cost? Where is it located?

```r
colleges %>% 
  group_by(city) %>% 
  summarize(avg_cost = mean(costt4_a, na.rm = T)) %>% 
  arrange(desc(avg_cost))
```

```
## # A tibble: 161 × 2
##    city                avg_cost
##    <chr>                  <dbl>
##  1 Claremont              66498
##  2 Malibu                 66152
##  3 Valencia               64686
##  4 Orange                 64501
##  5 Redlands               61542
##  6 Moraga                 61095
##  7 Atherton               56035
##  8 Thousand Oaks          54373
##  9 Rancho Palos Verdes    50758
## 10 La Verne               50603
## # … with 151 more rows
```
…
