…
2. Are these data "tidy" per the definitions of the tidyverse? How do you know? Are they in wide or long format?

No they are not, sites and dates can be separated into their own variables.

3. We are only interested in the variables site, date, and enterococci_cfu_100ml. Make a new object focused on these variables only. Name the object `sydneybeaches_long`

```r
sydneybeaches_long <- sydneybeaches %>% 
  select(site, date,enterococci_cfu_100ml)
sydneybeaches_long
```

```
## # A tibble: 3,690 × 3
##    site           date       enterococci_cfu_100ml
##    <chr>          <chr>                      <dbl>
##  1 Clovelly Beach 02/01/2013                    19
##  2 Clovelly Beach 06/01/2013                     3
##  3 Clovelly Beach 12/01/2013                     2
##  4 Clovelly Beach 18/01/2013                    13
##  5 Clovelly Beach 30/01/2013                     8
##  6 Clovelly Beach 05/02/2013                     7
##  7 Clovelly Beach 11/02/2013                    11
##  8 Clovelly Beach 23/02/2013                    97
##  9 Clovelly Beach 07/03/2013                     3
## 10 Clovelly Beach 25/03/2013                     0
## # … with 3,680 more rows
```
…
5. Pivot the data back so that the dates are data and not column names.

```r
sydneybeaches_wide %>% 
  pivot_longer(-c(beach_id, region, council, site, longitude, latitude),
               names_to = "date",
               values_to = "enterococci_cfu_100ml")
```

```
## # A tibble: 3,784 × 8
##    beach_id region                   council site  longi…¹ latit…² date  enter…³
##       <dbl> <chr>                    <chr>   <chr>   <dbl>   <dbl> <chr>   <dbl>
##  1       25 Sydney City Ocean Beach… Randwi… Clov…    151.   -33.9 02/0…      19
##  2       25 Sydney City Ocean Beach… Randwi… Clov…    151.   -33.9 06/0…       3
##  3       25 Sydney City Ocean Beach… Randwi… Clov…    151.   -33.9 12/0…       2
##  4       25 Sydney City Ocean Beach… Randwi… Clov…    151.   -33.9 18/0…      13
##  5       25 Sydney City Ocean Beach… Randwi… Clov…    151.   -33.9 30/0…       8
##  6       25 Sydney City Ocean Beach… Randwi… Clov…    151.   -33.9 05/0…       7
##  7       25 Sydney City Ocean Beach… Randwi… Clov…    151.   -33.9 11/0…      11
##  8       25 Sydney City Ocean Beach… Randwi… Clov…    151.   -33.9 23/0…      97
##  9       25 Sydney City Ocean Beach… Randwi… Clov…    151.   -33.9 07/0…       3
## 10       25 Sydney City Ocean Beach… Randwi… Clov…    151.   -33.9 25/0…       0
## # … with 3,774 more rows, and abbreviated variable names ¹​longitude, ²​latitude,
## #   ³​enterococci_cfu_100ml
```


6. We haven't dealt much with dates yet, but separate the date into columns day, month, and year. Do this on the `sydneybeaches_long` data.

```r
sydneybeaches_long_separated <- sydneybeaches_long %>% 
  separate(date, into = c("day", "month", "year"), sep = "/")
sydneybeaches_long_separated
```

```
## # A tibble: 3,690 × 5
##    site           day   month year  enterococci_cfu_100ml
##    <chr>          <chr> <chr> <chr>                 <dbl>
##  1 Clovelly Beach 02    01    2013                     19
##  2 Clovelly Beach 06    01    2013                      3
##  3 Clovelly Beach 12    01    2013                      2
##  4 Clovelly Beach 18    01    2013                     13
##  5 Clovelly Beach 30    01    2013                      8
##  6 Clovelly Beach 05    02    2013                      7
##  7 Clovelly Beach 11    02    2013                     11
##  8 Clovelly Beach 23    02    2013                     97
##  9 Clovelly Beach 07    03    2013                      3
## 10 Clovelly Beach 25    03    2013                      0
## # … with 3,680 more rows
```
…
```
## `summarise()` has grouped output by 'year'. You can override using the
## `.groups` argument.
```

```r
avg_enterococci_cfu_100ml_per_beach_per_year
```

```
## # A tibble: 66 × 3
## # Groups:   year [6]
##    year  site                    avg_enterococci_cfu_100ml
##    <chr> <chr>                                       <dbl>
##  1 2013  Bondi Beach                                 32.2 
##  2 2013  Bronte Beach                                26.8 
##  3 2013  Clovelly Beach                               9.28
##  4 2013  Coogee Beach                                39.7 
##  5 2013  Gordons Bay (East)                          24.8 
##  6 2013  Little Bay Beach                           122.  
##  7 2013  Malabar Beach                              101.  
##  8 2013  Maroubra Beach                              47.1 
##  9 2013  South Maroubra Beach                        39.3 
## 10 2013  South Maroubra Rockpool                     96.4 
## # … with 56 more rows
```
…
